<?xml version="1.0" standalone="no"?>
<!DOCTYPE svg PUBLIC "-//W3C//DTD SVG 20010904//EN"
 "http://www.w3.org/TR/2001/REC-SVG-20010904/DTD/svg10.dtd">
<svg version="1.0" xmlns="http://www.w3.org/2000/svg"
 width="250.000000pt" height="250.000000pt" viewBox="0 0 250.000000 250.000000"
 preserveAspectRatio="xMidYMid meet">
<metadata>
Created by potrace 1.11, written by Peter Selinger 2001-2013
</metadata>
<g transform="translate(0.000000,250.000000) scale(0.100000,-0.100000)"
fill="#000000" stroke="none">
<path d="M1211 2063 c-7 -3 -22 -14 -33 -25 -17 -17 -28 -19 -86 -13 -81 8
-145 -15 -183 -64 -13 -18 -39 -50 -57 -71 -25 -30 -31 -43 -24 -56 13 -23
-14 -74 -38 -74 -25 0 -35 -17 -20 -35 10 -12 9 -16 -3 -21 -17 -6 -32 -59
-53 -184 -7 -47 -19 -112 -25 -145 -7 -38 -9 -125 -5 -238 6 -210 23 -284 67
-299 33 -11 42 -31 28 -62 -8 -18 -7 -30 4 -53 9 -17 13 -40 10 -51 -4 -18 0
-23 26 -28 32 -7 39 -22 21 -40 -14 -14 20 -125 40 -131 43 -12 99 -47 108
-68 6 -14 23 -27 37 -31 40 -10 112 1 131 21 15 14 27 16 68 10 28 -4 70 -8
93 -8 24 -1 44 -6 45 -12 2 -6 -37 -12 -94 -15 -163 -8 -139 -35 32 -35 102 0
107 1 179 38 86 44 128 81 179 157 69 102 106 204 123 340 15 116 8 125 -85
116 -32 -3 -81 -6 -107 -6 -44 0 -50 -3 -64 -30 -8 -16 -15 -52 -15 -80 0 -70
-19 -109 -78 -158 -127 -106 -237 -106 -341 2 -32 33 -65 120 -91 236 -11 54
-12 266 0 355 6 44 15 116 21 160 25 199 89 296 203 310 81 10 128 -7 191 -71
30 -30 57 -64 60 -75 4 -10 15 -19 26 -19 17 0 19 -5 13 -54 -6 -53 -6 -55 20
-62 15 -3 74 -3 131 1 101 7 105 8 111 32 10 37 -3 150 -21 185 -8 17 -15 36
-15 43 0 14 -71 116 -109 159 -32 35 -170 126 -192 126 -9 0 -33 7 -52 15 -35
14 -147 19 -176 8z m179 -39 c0 -9 9 -18 20 -21 12 -3 19 -11 17 -17 -5 -13
-40 -9 -45 5 -2 5 -7 9 -12 9 -5 0 -21 5 -37 11 -26 10 -27 12 -8 19 34 14 65
11 65 -6z m-294 -25 c8 -14 -14 -29 -43 -29 -24 0 -38 14 -28 30 8 14 62 13
71 -1z m-99 -1481 c49 -46 16 -66 -37 -22 -24 20 -28 29 -18 35 20 13 30 11
55 -13z m53 -69 c0 -6 -4 -7 -10 -4 -5 3 -10 11 -10 16 0 6 5 7 10 4 6 -3 10
-11 10 -16z"/>
</g>
</svg>
